# compile verilog/system verilog design source files
verilog xil_defaultlib  --include "../../../../mrls_2D.srcs/sources_1/bd/design_1/ipshared/ec67/hdl" --include "../../../../mrls_2D.srcs/sources_1/bd/design_1/ipshared/8c62/hdl" --include "../../../../mrls_2D.srcs/sources_1/bd/design_1/ipshared/1ddd/hdl/verilog" --include "../../../../mrls_2D.srcs/sources_1/bd/design_1/ipshared/b2d0/hdl/verilog" --include "/opt/Xilinx/Vivado/2019.1/data/xilinx_vip/include" \
"../../../../mrls_2D.ip_user_files/bd/design_2/ipshared/ecd6/src/AD9650_v1_0_S00_AXI.v" \

sv xil_defaultlib  --include "../../../../mrls_2D.srcs/sources_1/bd/design_1/ipshared/ec67/hdl" --include "../../../../mrls_2D.srcs/sources_1/bd/design_1/ipshared/8c62/hdl" --include "../../../../mrls_2D.srcs/sources_1/bd/design_1/ipshared/1ddd/hdl/verilog" --include "../../../../mrls_2D.srcs/sources_1/bd/design_1/ipshared/b2d0/hdl/verilog" --include "/opt/Xilinx/Vivado/2019.1/data/xilinx_vip/include" \
"../../../../mrls_2D.ip_user_files/bd/design_2/ipshared/ecd6/src/spi_AD9650.sv" \
"../../../../mrls_2D.ip_user_files/bd/design_2/ipshared/ecd6/src/AD9650_v2_0.sv" \
"../../../../mrls_2D.ip_user_files/bd/design_2/ip/design_2_AD9650_0_0/sim/design_2_AD9650_0_0.sv" \

verilog xil_defaultlib  --include "../../../../mrls_2D.srcs/sources_1/bd/design_1/ipshared/ec67/hdl" --include "../../../../mrls_2D.srcs/sources_1/bd/design_1/ipshared/8c62/hdl" --include "../../../../mrls_2D.srcs/sources_1/bd/design_1/ipshared/1ddd/hdl/verilog" --include "../../../../mrls_2D.srcs/sources_1/bd/design_1/ipshared/b2d0/hdl/verilog" --include "/opt/Xilinx/Vivado/2019.1/data/xilinx_vip/include" \
"../../../../mrls_2D.ip_user_files/bd/design_2/ipshared/f1b9/hdl/HMC769_v4_0_S00_AXI.v" \
"../../../../mrls_2D.ip_user_files/bd/design_2/ipshared/f1b9/src/top_PLL_control.v" \

sv xil_defaultlib  --include "../../../../mrls_2D.srcs/sources_1/bd/design_1/ipshared/ec67/hdl" --include "../../../../mrls_2D.srcs/sources_1/bd/design_1/ipshared/8c62/hdl" --include "../../../../mrls_2D.srcs/sources_1/bd/design_1/ipshared/1ddd/hdl/verilog" --include "../../../../mrls_2D.srcs/sources_1/bd/design_1/ipshared/b2d0/hdl/verilog" --include "/opt/Xilinx/Vivado/2019.1/data/xilinx_vip/include" \
"../../../../mrls_2D.ip_user_files/bd/design_2/ipshared/f1b9/src/spi_hmc_mode_RX.sv" \
"../../../../mrls_2D.ip_user_files/bd/design_2/ipshared/f1b9/src/spi_hmc_mode_TX.sv" \
"../../../../mrls_2D.ip_user_files/bd/design_2/ipshared/f1b9/src/HMC769_v4_0.sv" \
"../../../../mrls_2D.ip_user_files/bd/design_2/ip/design_2_HMC769_0_0/sim/design_2_HMC769_0_0.sv" \

verilog xil_defaultlib  --include "../../../../mrls_2D.srcs/sources_1/bd/design_1/ipshared/ec67/hdl" --include "../../../../mrls_2D.srcs/sources_1/bd/design_1/ipshared/8c62/hdl" --include "../../../../mrls_2D.srcs/sources_1/bd/design_1/ipshared/1ddd/hdl/verilog" --include "../../../../mrls_2D.srcs/sources_1/bd/design_1/ipshared/b2d0/hdl/verilog" --include "/opt/Xilinx/Vivado/2019.1/data/xilinx_vip/include" \
"../../../../mrls_2D.ip_user_files/bd/design_2/ipshared/3fbb/hdl/averageFFT_v1_0.v" \
"../../../../mrls_2D.ip_user_files/bd/design_2/ip/design_2_averageFFT_0_0/sim/design_2_averageFFT_0_0.v" \
"../../../../mrls_2D.ip_user_files/bd/design_2/ip/design_2_xlconstant_0_0/sim/design_2_xlconstant_0_0.v" \
"../../../../mrls_2D.ip_user_files/bd/design_2/ip/design_2_xlconstant_0_1/sim/design_2_xlconstant_0_1.v" \
"../../../../mrls_2D.ip_user_files/bd/design_2/ip/design_2_xlconstant_1_0/sim/design_2_xlconstant_1_0.v" \
"../../../../mrls_2D.ip_user_files/bd/design_2/ip/design_2_xlconstant_1_1/sim/design_2_xlconstant_1_1.v" \
"../../../../mrls_2D.ip_user_files/bd/design_2/sim/design_2.v" \
"../../../../mrls_2D.srcs/sources_1/bd/design_2/hdl/design_2_wrapper.v" \

sv xil_defaultlib  --include "../../../../mrls_2D.srcs/sources_1/bd/design_1/ipshared/ec67/hdl" --include "../../../../mrls_2D.srcs/sources_1/bd/design_1/ipshared/8c62/hdl" --include "../../../../mrls_2D.srcs/sources_1/bd/design_1/ipshared/1ddd/hdl/verilog" --include "../../../../mrls_2D.srcs/sources_1/bd/design_1/ipshared/b2d0/hdl/verilog" --include "/opt/Xilinx/Vivado/2019.1/data/xilinx_vip/include" \
"../../../../mrls_2D.srcs/sim_1/new/tb_fft.sv" \

# compile glbl module
verilog xil_defaultlib "glbl.v"

# Do not sort compile order
nosort
